{
  "model": {
    "sensor": {
      "gains": [1.0, 1.0, 1.0],
      "biases": [0.0, 0.0, 0.0]
    },
    "poisson": {
      "soft": [
        [1.0, 0.0, 0.0],
        [0.0, 1.0, 0.0],
        [0.0, 0.0, 1.0]
      ],
      "hard": [0.0, 0.0, 0.0]
    },
    "mounting": [0.0, 0.0, 0.0]
  },
  "error": {
    "relativeDeviation": 0.0,
    "large": 0.0
  },
  "induction": [0.8, 0.0, 0.6],
  "attitudes": {
    "rollCount": 19,
    "pitchCount": 17,
    "yawCount": 37,
    "alignmentCount": 200
  }
}